[
	{
		"name": "Cassady",
		"surname": "Mccall",
		"age": 80,
		"mother": "Xyla",
		"father": "Jack"
	},
	{
		"name": "Carl",
		"surname": "York",
		"age": 32,
		"mother": "Freya",
		"father": "Benjamin"
	},
	{
		"name": "Merrill",
		"surname": "Hahn",
		"age": 48,
		"mother": "Lana",
		"father": "Chase"
	},
	{
		"name": "Uma",
		"surname": "Steele",
		"age": 7,
		"mother": "Hayley",
		"father": "Damian"
	},
	{
		"name": "Yoshi",
		"surname": "Finley",
		"age": 21,
		"mother": "Hyacinth",
		"father": "Avram"
	},
	{
		"name": "Colt",
		"surname": "Carter",
		"age": 85,
		"mother": "Quynn",
		"father": "Hall"
	},
	{
		"name": "Brooke",
		"surname": "Spencer",
		"age": 22,
		"mother": "Xaviera",
		"father": "Chancellor"
	},
	{
		"name": "Kelly",
		"surname": "Jarvis",
		"age": 55,
		"mother": "Inez",
		"father": "Mannix"
	},
	{
		"name": "Trevor",
		"surname": "George",
		"age": 74,
		"mother": "Jayme",
		"father": "Adam"
	},
	{
		"name": "Igor",
		"surname": "Herman",
		"age": 99,
		"mother": "Zia",
		"father": "Kato"
	},
	{
		"name": "Jordan",
		"surname": "Dorsey",
		"age": 91,
		"mother": "Brittany",
		"father": "Barrett"
	},
	{
		"name": "Anjolie",
		"surname": "Joyce",
		"age": 2,
		"mother": "Sade",
		"father": "Magee"
	},
	{
		"name": "Sharon",
		"surname": "Fitzgerald",
		"age": 18,
		"mother": "Macey",
		"father": "Edan"
	},
	{
		"name": "Justina",
		"surname": "Jacobs",
		"age": 67,
		"mother": "Rinah",
		"father": "Mark"
	},
	{
		"name": "Mia",
		"surname": "Joyce",
		"age": 65,
		"mother": "Claudia",
		"father": "Wade"
	},
	{
		"name": "Odysseus",
		"surname": "Moran",
		"age": 87,
		"mother": "Geraldine",
		"father": "Eagan"
	},
	{
		"name": "Alden",
		"surname": "Mccormick",
		"age": 87,
		"mother": "Blaine",
		"father": "Reed"
	},
	{
		"name": "Kylynn",
		"surname": "Cabrera",
		"age": 89,
		"mother": "Jolene",
		"father": "Bruno"
	},
	{
		"name": "Mark",
		"surname": "Bush",
		"age": 3,
		"mother": "Roanna",
		"father": "Kieran"
	},
	{
		"name": "Virginia",
		"surname": "Lynch",
		"age": 38,
		"mother": "Natalie",
		"father": "Tarik"
	},
	{
		"name": "Faith",
		"surname": "Durham",
		"age": 32,
		"mother": "Roary",
		"father": "Henry"
	},
	{
		"name": "Eaton",
		"surname": "Church",
		"age": 39,
		"mother": "Risa",
		"father": "Hayden"
	},
	{
		"name": "Adrian",
		"surname": "Wheeler",
		"age": 86,
		"mother": "Joelle",
		"father": "Jacob"
	},
	{
		"name": "Dominic",
		"surname": "Mcclure",
		"age": 87,
		"mother": "Rowan",
		"father": "Forrest"
	},
	{
		"name": "Lunea",
		"surname": "Campos",
		"age": 82,
		"mother": "Miriam",
		"father": "Julian"
	},
	{
		"name": "Len",
		"surname": "Alexander",
		"age": 51,
		"mother": "Kylan",
		"father": "Denton"
	},
	{
		"name": "Jayme",
		"surname": "Soto",
		"age": 16,
		"mother": "Evelyn",
		"father": "Perry"
	},
	{
		"name": "Georgia",
		"surname": "Chapman",
		"age": 85,
		"mother": "Daphne",
		"father": "Mohammad"
	},
	{
		"name": "Rosalyn",
		"surname": "Richards",
		"age": 71,
		"mother": "Evangeline",
		"father": "Xavier"
	},
	{
		"name": "Tara",
		"surname": "Carr",
		"age": 75,
		"mother": "Wynter",
		"father": "Damon"
	},
	{
		"name": "Bruce",
		"surname": "Knapp",
		"age": 34,
		"mother": "Victoria",
		"father": "Luke"
	},
	{
		"name": "Jelani",
		"surname": "Mills",
		"age": 15,
		"mother": "Hedwig",
		"father": "Carlos"
	},
	{
		"name": "Sylvia",
		"surname": "Stanton",
		"age": 82,
		"mother": "Clare",
		"father": "Wing"
	},
	{
		"name": "Charissa",
		"surname": "Campos",
		"age": 60,
		"mother": "Laurel",
		"father": "Kato"
	},
	{
		"name": "Alan",
		"surname": "Leach",
		"age": 84,
		"mother": "Inez",
		"father": "Tarik"
	},
	{
		"name": "Nicole",
		"surname": "Hoover",
		"age": 38,
		"mother": "Lael",
		"father": "Abbot"
	},
	{
		"name": "Marny",
		"surname": "Sargent",
		"age": 63,
		"mother": "Miriam",
		"father": "Chadwick"
	},
	{
		"name": "Theodore",
		"surname": "Leblanc",
		"age": 84,
		"mother": "Ann",
		"father": "Eagan"
	},
	{
		"name": "Jesse",
		"surname": "Noble",
		"age": 88,
		"mother": "Tana",
		"father": "Thomas"
	},
	{
		"name": "Carly",
		"surname": "Moses",
		"age": 31,
		"mother": "Rebecca",
		"father": "Chandler"
	},
	{
		"name": "Imelda",
		"surname": "Haley",
		"age": 78,
		"mother": "Riley",
		"father": "Quinlan"
	},
	{
		"name": "Cameran",
		"surname": "Roy",
		"age": 60,
		"mother": "Dai",
		"father": "Griffith"
	},
	{
		"name": "Camden",
		"surname": "Molina",
		"age": 56,
		"mother": "Karleigh",
		"father": "Keefe"
	},
	{
		"name": "Kylee",
		"surname": "Mcmillan",
		"age": 29,
		"mother": "Tatyana",
		"father": "Emery"
	},
	{
		"name": "Henry",
		"surname": "Hall",
		"age": 89,
		"mother": "Emily",
		"father": "Joshua"
	},
	{
		"name": "Ignatius",
		"surname": "Morales",
		"age": 33,
		"mother": "Indigo",
		"father": "Igor"
	},
	{
		"name": "Calista",
		"surname": "Ewing",
		"age": 19,
		"mother": "Anastasia",
		"father": "Fritz"
	},
	{
		"name": "Rhea",
		"surname": "Blair",
		"age": 5,
		"mother": "Odette",
		"father": "Finn"
	},
	{
		"name": "Reese",
		"surname": "Serrano",
		"age": 45,
		"mother": "Jessamine",
		"father": "Chadwick"
	},
	{
		"name": "Nash",
		"surname": "Newman",
		"age": 78,
		"mother": "Mari",
		"father": "Raphael"
	},
	{
		"name": "Violet",
		"surname": "Byrd",
		"age": 92,
		"mother": "Fallon",
		"father": "Rashad"
	},
	{
		"name": "Sydney",
		"surname": "Dotson",
		"age": 31,
		"mother": "Oprah",
		"father": "Malachi"
	},
	{
		"name": "Eugenia",
		"surname": "Ryan",
		"age": 23,
		"mother": "Octavia",
		"father": "Price"
	},
	{
		"name": "Brendan",
		"surname": "Burton",
		"age": 19,
		"mother": "Noelani",
		"father": "Thane"
	},
	{
		"name": "Lionel",
		"surname": "Sanders",
		"age": 68,
		"mother": "Tanisha",
		"father": "Silas"
	},
	{
		"name": "Tallulah",
		"surname": "Knapp",
		"age": 64,
		"mother": "Roanna",
		"father": "Barclay"
	},
	{
		"name": "Hedy",
		"surname": "Townsend",
		"age": 33,
		"mother": "Hyacinth",
		"father": "Dieter"
	},
	{
		"name": "Idona",
		"surname": "Sherman",
		"age": 79,
		"mother": "Barbara",
		"father": "Slade"
	},
	{
		"name": "Mannix",
		"surname": "Little",
		"age": 7,
		"mother": "Denise",
		"father": "Hamish"
	},
	{
		"name": "Kylynn",
		"surname": "Martin",
		"age": 24,
		"mother": "Cheryl",
		"father": "Stuart"
	},
	{
		"name": "Joshua",
		"surname": "Conrad",
		"age": 28,
		"mother": "Charity",
		"father": "Omar"
	},
	{
		"name": "Kelsie",
		"surname": "Church",
		"age": 77,
		"mother": "Imogene",
		"father": "Elvis"
	},
	{
		"name": "Mia",
		"surname": "Gibson",
		"age": 68,
		"mother": "Quin",
		"father": "Amir"
	},
	{
		"name": "Kamal",
		"surname": "Edwards",
		"age": 86,
		"mother": "Nevada",
		"father": "Hector"
	},
	{
		"name": "Zephr",
		"surname": "Carroll",
		"age": 70,
		"mother": "Imogene",
		"father": "Galvin"
	},
	{
		"name": "Selma",
		"surname": "Blanchard",
		"age": 83,
		"mother": "Piper",
		"father": "Forrest"
	},
	{
		"name": "Jason",
		"surname": "Wright",
		"age": 86,
		"mother": "Shellie",
		"father": "James"
	},
	{
		"name": "Willa",
		"surname": "Gentry",
		"age": 93,
		"mother": "Macy",
		"father": "Xanthus"
	},
	{
		"name": "Alvin",
		"surname": "Stewart",
		"age": 83,
		"mother": "Eugenia",
		"father": "Ronan"
	},
	{
		"name": "Nita",
		"surname": "Morales",
		"age": 37,
		"mother": "Leah",
		"father": "Nathan"
	},
	{
		"name": "Dalton",
		"surname": "Rutledge",
		"age": 91,
		"mother": "Blossom",
		"father": "Mannix"
	},
	{
		"name": "Cyrus",
		"surname": "Wiley",
		"age": 9,
		"mother": "Dawn",
		"father": "Rafael"
	},
	{
		"name": "Dakota",
		"surname": "Guzman",
		"age": 56,
		"mother": "Xantha",
		"father": "Nathan"
	},
	{
		"name": "Benedict",
		"surname": "Francis",
		"age": 65,
		"mother": "Rhonda",
		"father": "Guy"
	},
	{
		"name": "Unity",
		"surname": "Mendez",
		"age": 87,
		"mother": "Hedda",
		"father": "Declan"
	},
	{
		"name": "Calvin",
		"surname": "Case",
		"age": 33,
		"mother": "Ayanna",
		"father": "Lucas"
	},
	{
		"name": "Xantha",
		"surname": "Gallegos",
		"age": 87,
		"mother": "Pandora",
		"father": "Herrod"
	},
	{
		"name": "Shafira",
		"surname": "Walton",
		"age": 3,
		"mother": "Sophia",
		"father": "Moses"
	},
	{
		"name": "Merrill",
		"surname": "Delgado",
		"age": 9,
		"mother": "Kathleen",
		"father": "Avram"
	},
	{
		"name": "Darryl",
		"surname": "Young",
		"age": 55,
		"mother": "Tanya",
		"father": "Josiah"
	},
	{
		"name": "Thor",
		"surname": "Bates",
		"age": 6,
		"mother": "Ivy",
		"father": "Jermaine"
	},
	{
		"name": "Leonard",
		"surname": "Johnston",
		"age": 26,
		"mother": "Lydia",
		"father": "George"
	},
	{
		"name": "Janna",
		"surname": "Branch",
		"age": 62,
		"mother": "Josephine",
		"father": "Linus"
	},
	{
		"name": "Brianna",
		"surname": "Vang",
		"age": 91,
		"mother": "Mira",
		"father": "Herman"
	},
	{
		"name": "Logan",
		"surname": "Campos",
		"age": 43,
		"mother": "Sage",
		"father": "Kasimir"
	},
	{
		"name": "Dominic",
		"surname": "Cooley",
		"age": 92,
		"mother": "Olympia",
		"father": "Maxwell"
	},
	{
		"name": "Bert",
		"surname": "Allison",
		"age": 21,
		"mother": "Ingrid",
		"father": "Kibo"
	},
	{
		"name": "Amity",
		"surname": "Waters",
		"age": 76,
		"mother": "Yen",
		"father": "Hashim"
	},
	{
		"name": "Trevor",
		"surname": "Blake",
		"age": 41,
		"mother": "Desiree",
		"father": "Robert"
	},
	{
		"name": "Faith",
		"surname": "Knowles",
		"age": 17,
		"mother": "Eden",
		"father": "Victor"
	},
	{
		"name": "Octavia",
		"surname": "Craig",
		"age": 33,
		"mother": "Doris",
		"father": "Kyle"
	},
	{
		"name": "Paki",
		"surname": "Blair",
		"age": 9,
		"mother": "Celeste",
		"father": "Hayden"
	},
	{
		"name": "Octavius",
		"surname": "Wagner",
		"age": 94,
		"mother": "Astra",
		"father": "Keegan"
	},
	{
		"name": "Scott",
		"surname": "Carter",
		"age": 44,
		"mother": "Naida",
		"father": "Lucas"
	},
	{
		"name": "Timothy",
		"surname": "Day",
		"age": 12,
		"mother": "Shellie",
		"father": "Aristotle"
	},
	{
		"name": "Steven",
		"surname": "Davenport",
		"age": 11,
		"mother": "Elizabeth",
		"father": "Sebastian"
	},
	{
		"name": "Lacey",
		"surname": "Howell",
		"age": 93,
		"mother": "Iliana",
		"father": "Macon"
	},
	{
		"name": "Vivien",
		"surname": "Christian",
		"age": 85,
		"mother": "Dakota",
		"father": "Vincent"
	},
	{
		"name": "Kellie",
		"surname": "Shaffer",
		"age": 41,
		"mother": "Selma",
		"father": "Kamal"
	},
	{
		"name": "Jamal",
		"surname": "Leon",
		"age": 12,
		"mother": "Miranda",
		"father": "Rogan"
	}
]